%YAML 1.1
%TAG !u! tag:unity3d.com,2011:
--- !u!29 &1
OcclusionCullingSettings:
  m_ObjectHideFlags: 0
  serializedVersion: 2
  m_OcclusionBakeSettings:
    smallestOccluder: 5
    smallestHole: 0.25
    backfaceThreshold: 100
  m_SceneGUID: 00000000000000000000000000000000
  m_OcclusionCullingData: {fileID: 0}
--- !u!104 &2
RenderSettings:
  m_ObjectHideFlags: 0
  serializedVersion: 9
  m_Fog: 0
  m_FogColor: {r: 0.5, g: 0.5, b: 0.5, a: 1}
  m_FogMode: 3
  m_FogDensity: 0.01
  m_LinearFogStart: 0
  m_LinearFogEnd: 300
  m_AmbientSkyColor: {r: 0.212, g: 0.227, b: 0.259, a: 1}
  m_AmbientEquatorColor: {r: 0.114, g: 0.125, b: 0.133, a: 1}
  m_AmbientGroundColor: {r: 0.047, g: 0.043, b: 0.035, a: 1}
  m_AmbientIntensity: 1
  m_AmbientMode: 3
  m_SubtractiveShadowColor: {r: 0.42, g: 0.478, b: 0.627, a: 1}
  m_SkyboxMaterial: {fileID: 0}
  m_HaloStrength: 0.5
  m_FlareStrength: 1
  m_FlareFadeSpeed: 3
  m_HaloTexture: {fileID: 0}
  m_SpotCookie: {fileID: 10001, guid: 0000000000000000e000000000000000, type: 0}
  m_DefaultReflectionMode: 0
  m_DefaultReflectionResolution: 128
  m_ReflectionBounces: 1
  m_ReflectionIntensity: 1
  m_CustomReflection: {fileID: 0}
  m_Sun: {fileID: 0}
  m_IndirectSpecularColor: {r: 0, g: 0, b: 0, a: 1}
  m_UseRadianceAmbientProbe: 0
--- !u!157 &3
LightmapSettings:
  m_ObjectHideFlags: 0
  serializedVersion: 11
  m_GIWorkflowMode: 1
  m_GISettings:
    serializedVersion: 2
    m_BounceScale: 1
    m_IndirectOutputScale: 1
    m_AlbedoBoost: 1
    m_EnvironmentLightingMode: 0
    m_EnableBakedLightmaps: 0
    m_EnableRealtimeLightmaps: 0
  m_LightmapEditorSettings:
    serializedVersion: 12
    m_Resolution: 2
    m_BakeResolution: 40
    m_AtlasSize: 1024
    m_AO: 0
    m_AOMaxDistance: 1
    m_CompAOExponent: 1
    m_CompAOExponentDirect: 0
    m_ExtractAmbientOcclusion: 0
    m_Padding: 2
    m_LightmapParameters: {fileID: 0}
    m_LightmapsBakeMode: 1
    m_TextureCompression: 1
    m_FinalGather: 0
    m_FinalGatherFiltering: 1
    m_FinalGatherRayCount: 256
    m_ReflectionCompression: 2
    m_MixedBakeMode: 2
    m_BakeBackend: 0
    m_PVRSampling: 1
    m_PVRDirectSampleCount: 32
    m_PVRSampleCount: 500
    m_PVRBounces: 2
    m_PVREnvironmentSampleCount: 500
    m_PVREnvironmentReferencePointCount: 2048
    m_PVRFilteringMode: 2
    m_PVRDenoiserTypeDirect: 0
    m_PVRDenoiserTypeIndirect: 0
    m_PVRDenoiserTypeAO: 0
    m_PVRFilterTypeDirect: 0
    m_PVRFilterTypeIndirect: 0
    m_PVRFilterTypeAO: 0
    m_PVREnvironmentMIS: 0
    m_PVRCulling: 1
    m_PVRFilteringGaussRadiusDirect: 1
    m_PVRFilteringGaussRadiusIndirect: 5
    m_PVRFilteringGaussRadiusAO: 2
    m_PVRFilteringAtrousPositionSigmaDirect: 0.5
    m_PVRFilteringAtrousPositionSigmaIndirect: 2
    m_PVRFilteringAtrousPositionSigmaAO: 1
    m_ShowResolutionOverlay: 1
    m_ExportTrainingData: 0
  m_LightingDataAsset: {fileID: 0}
  m_UseShadowmask: 1
--- !u!196 &4
NavMeshSettings:
  serializedVersion: 2
  m_ObjectHideFlags: 0
  m_BuildSettings:
    serializedVersion: 2
    agentTypeID: 0
    agentRadius: 0.5
    agentHeight: 2
    agentSlope: 45
    agentClimb: 0.4
    ledgeDropHeight: 0
    maxJumpAcrossDistance: 0
    minRegionArea: 2
    manualCellSize: 0
    cellSize: 0.16666667
    manualTileSize: 0
    tileSize: 256
    accuratePlacement: 0
    debug:
      m_Flags: 0
  m_NavMeshData: {fileID: 0}
--- !u!1001 &1534710047
PrefabInstance:
  m_ObjectHideFlags: 0
  serializedVersion: 2
  m_Modification:
    m_TransformParent: {fileID: 0}
    m_Modifications:
    - target: {fileID: 2810159809503663288, guid: fc8ef515841ed42eb9c6de9f9757667c,
        type: 3}
      propertyPath: m_Name
      value: GameManager
      objectReference: {fileID: 0}
    - target: {fileID: 2810159809503663289, guid: fc8ef515841ed42eb9c6de9f9757667c,
        type: 3}
      propertyPath: m_LocalPosition.x
      value: 0
      objectReference: {fileID: 0}
    - target: {fileID: 2810159809503663289, guid: fc8ef515841ed42eb9c6de9f9757667c,
        type: 3}
      propertyPath: m_LocalPosition.y
      value: 0
      objectReference: {fileID: 0}
    - target: {fileID: 2810159809503663289, guid: fc8ef515841ed42eb9c6de9f9757667c,
        type: 3}
      propertyPath: m_LocalPosition.z
      value: 0
      objectReference: {fileID: 0}
    - target: {fileID: 2810159809503663289, guid: fc8ef515841ed42eb9c6de9f9757667c,
        type: 3}
      propertyPath: m_LocalRotation.x
      value: -0
      objectReference: {fileID: 0}
    - target: {fileID: 2810159809503663289, guid: fc8ef515841ed42eb9c6de9f9757667c,
        type: 3}
      propertyPath: m_LocalRotation.y
      value: -0
      objectReference: {fileID: 0}
    - target: {fileID: 2810159809503663289, guid: fc8ef515841ed42eb9c6de9f9757667c,
        type: 3}
      propertyPath: m_LocalRotation.z
      value: -0
      objectReference: {fileID: 0}
    - target: {fileID: 2810159809503663289, guid: fc8ef515841ed42eb9c6de9f9757667c,
        type: 3}
      propertyPath: m_LocalRotation.w
      value: 1
      objectReference: {fileID: 0}
    - target: {fileID: 2810159809503663289, guid: fc8ef515841ed42eb9c6de9f9757667c,
        type: 3}
      propertyPath: m_RootOrder
      value: 1
      objectReference: {fileID: 0}
    - target: {fileID: 2810159809503663289, guid: fc8ef515841ed42eb9c6de9f9757667c,
        type: 3}
      propertyPath: m_LocalEulerAnglesHint.x
      value: 0
      objectReference: {fileID: 0}
    - target: {fileID: 2810159809503663289, guid: fc8ef515841ed42eb9c6de9f9757667c,
        type: 3}
      propertyPath: m_LocalEulerAnglesHint.y
      value: 0
      objectReference: {fileID: 0}
    - target: {fileID: 2810159809503663289, guid: fc8ef515841ed42eb9c6de9f9757667c,
        type: 3}
      propertyPath: m_LocalEulerAnglesHint.z
      value: 0
      objectReference: {fileID: 0}
    - target: {fileID: 2810159809503663289, guid: fc8ef515841ed42eb9c6de9f9757667c,
        type: 3}
      propertyPath: m_LocalScale.x
      value: 12
      objectReference: {fileID: 0}
    - target: {fileID: 2810159809503663289, guid: fc8ef515841ed42eb9c6de9f9757667c,
        type: 3}
      propertyPath: m_LocalScale.y
      value: 9
      objectReference: {fileID: 0}
    - target: {fileID: 2810159809503663294, guid: fc8ef515841ed42eb9c6de9f9757667c,
        type: 3}
      propertyPath: hasAIPlayer
      value: 1
      objectReference: {fileID: 0}
    - target: {fileID: 2810159809503663294, guid: fc8ef515841ed42eb9c6de9f9757667c,
        type: 3}
      propertyPath: gameArea
      value: 
      objectReference: {fileID: 5589229730256437246}
    m_RemovedComponents: []
  m_SourcePrefab: {fileID: 100100000, guid: fc8ef515841ed42eb9c6de9f9757667c, type: 3}
--- !u!1001 &2114352979
PrefabInstance:
  m_ObjectHideFlags: 0
  serializedVersion: 2
  m_Modification:
    m_TransformParent: {fileID: 0}
    m_Modifications:
    - target: {fileID: 5754527455762840871, guid: c586360729acd4fc09ed6e8004ff2428,
        type: 3}
      propertyPath: m_Name
      value: CentreLine
      objectReference: {fileID: 0}
    - target: {fileID: 5758169121353062536, guid: c586360729acd4fc09ed6e8004ff2428,
        type: 3}
      propertyPath: m_LocalPosition.x
      value: 0
      objectReference: {fileID: 0}
    - target: {fileID: 5758169121353062536, guid: c586360729acd4fc09ed6e8004ff2428,
        type: 3}
      propertyPath: m_LocalPosition.y
      value: -0.5
      objectReference: {fileID: 0}
    - target: {fileID: 5758169121353062536, guid: c586360729acd4fc09ed6e8004ff2428,
        type: 3}
      propertyPath: m_LocalPosition.z
      value: 0
      objectReference: {fileID: 0}
    - target: {fileID: 5758169121353062536, guid: c586360729acd4fc09ed6e8004ff2428,
        type: 3}
      propertyPath: m_LocalRotation.x
      value: 0
      objectReference: {fileID: 0}
    - target: {fileID: 5758169121353062536, guid: c586360729acd4fc09ed6e8004ff2428,
        type: 3}
      propertyPath: m_LocalRotation.y
      value: 0
      objectReference: {fileID: 0}
    - target: {fileID: 5758169121353062536, guid: c586360729acd4fc09ed6e8004ff2428,
        type: 3}
      propertyPath: m_LocalRotation.z
      value: 0
      objectReference: {fileID: 0}
    - target: {fileID: 5758169121353062536, guid: c586360729acd4fc09ed6e8004ff2428,
        type: 3}
      propertyPath: m_LocalRotation.w
      value: 1
      objectReference: {fileID: 0}
    - target: {fileID: 5758169121353062536, guid: c586360729acd4fc09ed6e8004ff2428,
        type: 3}
      propertyPath: m_RootOrder
      value: 4
      objectReference: {fileID: 0}
    - target: {fileID: 5758169121353062536, guid: c586360729acd4fc09ed6e8004ff2428,
        type: 3}
      propertyPath: m_LocalEulerAnglesHint.x
      value: 0
      objectReference: {fileID: 0}
    - target: {fileID: 5758169121353062536, guid: c586360729acd4fc09ed6e8004ff2428,
        type: 3}
      propertyPath: m_LocalEulerAnglesHint.y
      value: 0
      objectReference: {fileID: 0}
    - target: {fileID: 5758169121353062536, guid: c586360729acd4fc09ed6e8004ff2428,
        type: 3}
      propertyPath: m_LocalEulerAnglesHint.z
      value: 0
      objectReference: {fileID: 0}
    - target: {fileID: 5758169121353062536, guid: c586360729acd4fc09ed6e8004ff2428,
        type: 3}
      propertyPath: m_LocalScale.y
      value: 2
      objectReference: {fileID: 0}
    - target: {fileID: 5758169121353062536, guid: c586360729acd4fc09ed6e8004ff2428,
        type: 3}
      propertyPath: m_LocalScale.x
      value: 0.075
      objectReference: {fileID: 0}
    - target: {fileID: 7218412587254361447, guid: c586360729acd4fc09ed6e8004ff2428,
        type: 3}
      propertyPath: m_Sprite
      value: 
      objectReference: {fileID: 21300000, guid: 88cd736fd310e4fbf97e69d87d8eb808,
        type: 3}
    - target: {fileID: 7218412587254361447, guid: c586360729acd4fc09ed6e8004ff2428,
        type: 3}
      propertyPath: m_Size.x
      value: 0.04
      objectReference: {fileID: 0}
    - target: {fileID: 7218412587254361447, guid: c586360729acd4fc09ed6e8004ff2428,
        type: 3}
      propertyPath: m_Size.y
      value: 0.2
      objectReference: {fileID: 0}
    - target: {fileID: 7218412587254361447, guid: c586360729acd4fc09ed6e8004ff2428,
        type: 3}
      propertyPath: m_WasSpriteAssigned
      value: 1
      objectReference: {fileID: 0}
    - target: {fileID: 7218412587254361447, guid: c586360729acd4fc09ed6e8004ff2428,
        type: 3}
      propertyPath: m_DrawMode
      value: 0
      objectReference: {fileID: 0}
    m_RemovedComponents: []
  m_SourcePrefab: {fileID: 100100000, guid: c586360729acd4fc09ed6e8004ff2428, type: 3}
--- !u!1001 &2696918989861528419
PrefabInstance:
  m_ObjectHideFlags: 0
  serializedVersion: 2
  m_Modification:
    m_TransformParent: {fileID: 0}
    m_Modifications:
    - target: {fileID: 2696918990048491832, guid: bc6f8472fb47f4b378c4e2850bac715e,
        type: 3}
      propertyPath: m_Name
      value: GameCanvas
      objectReference: {fileID: 0}
    - target: {fileID: 2696918990048491836, guid: bc6f8472fb47f4b378c4e2850bac715e,
        type: 3}
      propertyPath: m_LocalPosition.x
      value: 0
      objectReference: {fileID: 0}
    - target: {fileID: 2696918990048491836, guid: bc6f8472fb47f4b378c4e2850bac715e,
        type: 3}
      propertyPath: m_LocalPosition.y
      value: 0
      objectReference: {fileID: 0}
    - target: {fileID: 2696918990048491836, guid: bc6f8472fb47f4b378c4e2850bac715e,
        type: 3}
      propertyPath: m_LocalPosition.z
      value: -8
      objectReference: {fileID: 0}
    - target: {fileID: 2696918990048491836, guid: bc6f8472fb47f4b378c4e2850bac715e,
        type: 3}
      propertyPath: m_LocalRotation.x
      value: -0
      objectReference: {fileID: 0}
    - target: {fileID: 2696918990048491836, guid: bc6f8472fb47f4b378c4e2850bac715e,
        type: 3}
      propertyPath: m_LocalRotation.y
      value: -0
      objectReference: {fileID: 0}
    - target: {fileID: 2696918990048491836, guid: bc6f8472fb47f4b378c4e2850bac715e,
        type: 3}
      propertyPath: m_LocalRotation.z
      value: -0
      objectReference: {fileID: 0}
    - target: {fileID: 2696918990048491836, guid: bc6f8472fb47f4b378c4e2850bac715e,
        type: 3}
      propertyPath: m_LocalRotation.w
      value: 1
      objectReference: {fileID: 0}
    - target: {fileID: 2696918990048491836, guid: bc6f8472fb47f4b378c4e2850bac715e,
        type: 3}
      propertyPath: m_RootOrder
      value: 5
      objectReference: {fileID: 0}
    - target: {fileID: 2696918990048491836, guid: bc6f8472fb47f4b378c4e2850bac715e,
        type: 3}
      propertyPath: m_LocalEulerAnglesHint.x
      value: 0
      objectReference: {fileID: 0}
    - target: {fileID: 2696918990048491836, guid: bc6f8472fb47f4b378c4e2850bac715e,
        type: 3}
      propertyPath: m_LocalEulerAnglesHint.y
      value: 0
      objectReference: {fileID: 0}
    - target: {fileID: 2696918990048491836, guid: bc6f8472fb47f4b378c4e2850bac715e,
        type: 3}
      propertyPath: m_LocalEulerAnglesHint.z
      value: 0
      objectReference: {fileID: 0}
    - target: {fileID: 2696918990048491836, guid: bc6f8472fb47f4b378c4e2850bac715e,
        type: 3}
      propertyPath: m_AnchoredPosition.x
      value: 0
      objectReference: {fileID: 0}
    - target: {fileID: 2696918990048491836, guid: bc6f8472fb47f4b378c4e2850bac715e,
        type: 3}
      propertyPath: m_AnchoredPosition.y
      value: 0
      objectReference: {fileID: 0}
    - target: {fileID: 2696918990048491836, guid: bc6f8472fb47f4b378c4e2850bac715e,
        type: 3}
      propertyPath: m_SizeDelta.x
      value: 1200
      objectReference: {fileID: 0}
    - target: {fileID: 2696918990048491836, guid: bc6f8472fb47f4b378c4e2850bac715e,
        type: 3}
      propertyPath: m_SizeDelta.y
      value: 900
      objectReference: {fileID: 0}
    - target: {fileID: 2696918990048491836, guid: bc6f8472fb47f4b378c4e2850bac715e,
        type: 3}
      propertyPath: m_AnchorMin.x
      value: 0.5
      objectReference: {fileID: 0}
    - target: {fileID: 2696918990048491836, guid: bc6f8472fb47f4b378c4e2850bac715e,
        type: 3}
      propertyPath: m_AnchorMin.y
      value: 0.5
      objectReference: {fileID: 0}
    - target: {fileID: 2696918990048491836, guid: bc6f8472fb47f4b378c4e2850bac715e,
        type: 3}
      propertyPath: m_AnchorMax.x
      value: 0.5
      objectReference: {fileID: 0}
    - target: {fileID: 2696918990048491836, guid: bc6f8472fb47f4b378c4e2850bac715e,
        type: 3}
      propertyPath: m_AnchorMax.y
      value: 0.5
      objectReference: {fileID: 0}
    - target: {fileID: 2696918990048491836, guid: bc6f8472fb47f4b378c4e2850bac715e,
        type: 3}
      propertyPath: m_Pivot.x
      value: 0.5
      objectReference: {fileID: 0}
    - target: {fileID: 2696918990048491836, guid: bc6f8472fb47f4b378c4e2850bac715e,
        type: 3}
      propertyPath: m_Pivot.y
      value: 0.5
      objectReference: {fileID: 0}
    - target: {fileID: 2696918990048491837, guid: bc6f8472fb47f4b378c4e2850bac715e,
        type: 3}
      propertyPath: m_Camera
      value: 
      objectReference: {fileID: 3202642863521033133}
    m_RemovedComponents: []
  m_SourcePrefab: {fileID: 100100000, guid: bc6f8472fb47f4b378c4e2850bac715e, type: 3}
--- !u!1001 &3202642863521033132
PrefabInstance:
  m_ObjectHideFlags: 0
  serializedVersion: 2
  m_Modification:
    m_TransformParent: {fileID: 0}
    m_Modifications:
    - target: {fileID: 3202642863551271888, guid: af40ce14a87d7490aa2b65d8895a6d5d,
        type: 3}
      propertyPath: m_Name
      value: Main Camera
      objectReference: {fileID: 0}
    - target: {fileID: 3202642863551271724, guid: af40ce14a87d7490aa2b65d8895a6d5d,
        type: 3}
      propertyPath: m_LocalPosition.x
      value: 0
      objectReference: {fileID: 0}
    - target: {fileID: 3202642863551271724, guid: af40ce14a87d7490aa2b65d8895a6d5d,
        type: 3}
      propertyPath: m_LocalPosition.y
      value: 0
      objectReference: {fileID: 0}
    - target: {fileID: 3202642863551271724, guid: af40ce14a87d7490aa2b65d8895a6d5d,
        type: 3}
      propertyPath: m_LocalPosition.z
      value: -10
      objectReference: {fileID: 0}
    - target: {fileID: 3202642863551271724, guid: af40ce14a87d7490aa2b65d8895a6d5d,
        type: 3}
      propertyPath: m_LocalRotation.x
      value: 0
      objectReference: {fileID: 0}
    - target: {fileID: 3202642863551271724, guid: af40ce14a87d7490aa2b65d8895a6d5d,
        type: 3}
      propertyPath: m_LocalRotation.y
      value: 0
      objectReference: {fileID: 0}
    - target: {fileID: 3202642863551271724, guid: af40ce14a87d7490aa2b65d8895a6d5d,
        type: 3}
      propertyPath: m_LocalRotation.z
      value: 0
      objectReference: {fileID: 0}
    - target: {fileID: 3202642863551271724, guid: af40ce14a87d7490aa2b65d8895a6d5d,
        type: 3}
      propertyPath: m_LocalRotation.w
      value: 1
      objectReference: {fileID: 0}
    - target: {fileID: 3202642863551271724, guid: af40ce14a87d7490aa2b65d8895a6d5d,
        type: 3}
      propertyPath: m_RootOrder
      value: 0
      objectReference: {fileID: 0}
    - target: {fileID: 3202642863551271724, guid: af40ce14a87d7490aa2b65d8895a6d5d,
        type: 3}
      propertyPath: m_LocalEulerAnglesHint.x
      value: 0
      objectReference: {fileID: 0}
    - target: {fileID: 3202642863551271724, guid: af40ce14a87d7490aa2b65d8895a6d5d,
        type: 3}
      propertyPath: m_LocalEulerAnglesHint.y
      value: 0
      objectReference: {fileID: 0}
    - target: {fileID: 3202642863551271724, guid: af40ce14a87d7490aa2b65d8895a6d5d,
        type: 3}
      propertyPath: m_LocalEulerAnglesHint.z
      value: 0
      objectReference: {fileID: 0}
    m_RemovedComponents: []
  m_SourcePrefab: {fileID: 100100000, guid: af40ce14a87d7490aa2b65d8895a6d5d, type: 3}
--- !u!20 &3202642863521033133 stripped
Camera:
  m_CorrespondingSourceObject: {fileID: 3202642863551271891, guid: af40ce14a87d7490aa2b65d8895a6d5d,
    type: 3}
  m_PrefabInstance: {fileID: 3202642863521033132}
  m_PrefabAsset: {fileID: 0}
--- !u!1001 &5589229730256437245
PrefabInstance:
  m_ObjectHideFlags: 0
  serializedVersion: 2
  m_Modification:
    m_TransformParent: {fileID: 0}
    m_Modifications:
    - target: {fileID: 5589229730440809665, guid: 7b468f0cfd7fc4050af97897ae03fadd,
        type: 3}
      propertyPath: m_Name
      value: GameArea
      objectReference: {fileID: 0}
    - target: {fileID: 5589229730440809667, guid: 7b468f0cfd7fc4050af97897ae03fadd,
        type: 3}
      propertyPath: m_LocalPosition.x
      value: 0
      objectReference: {fileID: 0}
    - target: {fileID: 5589229730440809667, guid: 7b468f0cfd7fc4050af97897ae03fadd,
        type: 3}
      propertyPath: m_LocalPosition.y
      value: 0
      objectReference: {fileID: 0}
    - target: {fileID: 5589229730440809667, guid: 7b468f0cfd7fc4050af97897ae03fadd,
        type: 3}
      propertyPath: m_LocalPosition.z
      value: 0
      objectReference: {fileID: 0}
    - target: {fileID: 5589229730440809667, guid: 7b468f0cfd7fc4050af97897ae03fadd,
        type: 3}
      propertyPath: m_LocalRotation.x
      value: 0
      objectReference: {fileID: 0}
    - target: {fileID: 5589229730440809667, guid: 7b468f0cfd7fc4050af97897ae03fadd,
        type: 3}
      propertyPath: m_LocalRotation.y
      value: 0
      objectReference: {fileID: 0}
    - target: {fileID: 5589229730440809667, guid: 7b468f0cfd7fc4050af97897ae03fadd,
        type: 3}
      propertyPath: m_LocalRotation.z
      value: 0
      objectReference: {fileID: 0}
    - target: {fileID: 5589229730440809667, guid: 7b468f0cfd7fc4050af97897ae03fadd,
        type: 3}
      propertyPath: m_LocalRotation.w
      value: 1
      objectReference: {fileID: 0}
    - target: {fileID: 5589229730440809667, guid: 7b468f0cfd7fc4050af97897ae03fadd,
        type: 3}
      propertyPath: m_RootOrder
      value: 2
      objectReference: {fileID: 0}
    - target: {fileID: 5589229730440809667, guid: 7b468f0cfd7fc4050af97897ae03fadd,
        type: 3}
      propertyPath: m_LocalEulerAnglesHint.x
      value: 0
      objectReference: {fileID: 0}
    - target: {fileID: 5589229730440809667, guid: 7b468f0cfd7fc4050af97897ae03fadd,
        type: 3}
      propertyPath: m_LocalEulerAnglesHint.y
      value: 0
      objectReference: {fileID: 0}
    - target: {fileID: 5589229730440809667, guid: 7b468f0cfd7fc4050af97897ae03fadd,
        type: 3}
      propertyPath: m_LocalEulerAnglesHint.z
      value: 0
      objectReference: {fileID: 0}
    m_RemovedComponents: []
  m_SourcePrefab: {fileID: 100100000, guid: 7b468f0cfd7fc4050af97897ae03fadd, type: 3}
--- !u!1 &5589229730256437246 stripped
GameObject:
  m_CorrespondingSourceObject: {fileID: 5589229730440809665, guid: 7b468f0cfd7fc4050af97897ae03fadd,
    type: 3}
  m_PrefabInstance: {fileID: 5589229730256437245}
  m_PrefabAsset: {fileID: 0}
--- !u!1001 &6700463462272418790
PrefabInstance:
  m_ObjectHideFlags: 0
  serializedVersion: 2
  m_Modification:
    m_TransformParent: {fileID: 0}
    m_Modifications:
    - target: {fileID: 6700463463103263001, guid: c0fadc3e2cdbf429e928bb41dd72c765,
        type: 3}
      propertyPath: m_Name
      value: GlobalPostProcessing
      objectReference: {fileID: 0}
    - target: {fileID: 6700463463103262951, guid: c0fadc3e2cdbf429e928bb41dd72c765,
        type: 3}
      propertyPath: m_LocalPosition.x
      value: 0
      objectReference: {fileID: 0}
    - target: {fileID: 6700463463103262951, guid: c0fadc3e2cdbf429e928bb41dd72c765,
        type: 3}
      propertyPath: m_LocalPosition.y
      value: 0
      objectReference: {fileID: 0}
    - target: {fileID: 6700463463103262951, guid: c0fadc3e2cdbf429e928bb41dd72c765,
        type: 3}
      propertyPath: m_LocalPosition.z
      value: 0
      objectReference: {fileID: 0}
    - target: {fileID: 6700463463103262951, guid: c0fadc3e2cdbf429e928bb41dd72c765,
        type: 3}
      propertyPath: m_LocalRotation.x
      value: 0
      objectReference: {fileID: 0}
    - target: {fileID: 6700463463103262951, guid: c0fadc3e2cdbf429e928bb41dd72c765,
        type: 3}
      propertyPath: m_LocalRotation.y
      value: 0
      objectReference: {fileID: 0}
    - target: {fileID: 6700463463103262951, guid: c0fadc3e2cdbf429e928bb41dd72c765,
        type: 3}
      propertyPath: m_LocalRotation.z
      value: 0
      objectReference: {fileID: 0}
    - target: {fileID: 6700463463103262951, guid: c0fadc3e2cdbf429e928bb41dd72c765,
        type: 3}
      propertyPath: m_LocalRotation.w
      value: 1
      objectReference: {fileID: 0}
    - target: {fileID: 6700463463103262951, guid: c0fadc3e2cdbf429e928bb41dd72c765,
        type: 3}
      propertyPath: m_RootOrder
      value: 3
      objectReference: {fileID: 0}
    - target: {fileID: 6700463463103262951, guid: c0fadc3e2cdbf429e928bb41dd72c765,
        type: 3}
      propertyPath: m_LocalEulerAnglesHint.x
      value: 0
      objectReference: {fileID: 0}
    - target: {fileID: 6700463463103262951, guid: c0fadc3e2cdbf429e928bb41dd72c765,
        type: 3}
      propertyPath: m_LocalEulerAnglesHint.y
      value: 0
      objectReference: {fileID: 0}
    - target: {fileID: 6700463463103262951, guid: c0fadc3e2cdbf429e928bb41dd72c765,
        type: 3}
      propertyPath: m_LocalEulerAnglesHint.z
      value: 0
      objectReference: {fileID: 0}
    m_RemovedComponents: []
  m_SourcePrefab: {fileID: 100100000, guid: c0fadc3e2cdbf429e928bb41dd72c765, type: 3}
